^C:\WORKSPACE\GAMEDEV_STREAM\NEW\PACKAGE_WIN\SRC\GAME.CPP
C:\WINDOWS\GLOBALIZATION\SORTING\SORTDEFAULT.NLS
C:\PROGRAM FILES (X86)\MICROSOFT VISUAL STUDIO 14.0\VC\BIN\1033\CLUI.DLL
C:\WINDOWS\SYSTEM32\TZRES.DLL
C:\WORKSPACE\GAMEDEV_STREAM\NEW\PACKAGE_WIN\SRC\FRAMEWORK.H
